hades.symbols.BboxRectangle  0 0 4800 3600
hades.symbols.Rectangle  0 0 4800 3600
hades.symbols.PortLabel 4650 1350 3 Output
hades.symbols.PortSymbol 4800 1200 Output
hades.symbols.PortLabel 4650 750 3 Flags_out
hades.symbols.PortSymbol 4800 600 Flags_out
hades.symbols.PortLabel 150 3150 SpecialRot
hades.symbols.PortSymbol 0 3000 SpecialRot
hades.symbols.PortLabel 150 2550 Source_A
hades.symbols.PortSymbol 0 2400 Source_A
hades.symbols.PortLabel 150 1950 Source_B
hades.symbols.PortSymbol 0 1800 Source_B
hades.symbols.PortLabel 150 1350 Flags_in
hades.symbols.PortSymbol 0 1200 Flags_in
hades.symbols.PortLabel 150 750 Last4
hades.symbols.PortSymbol 0 600 Last4
hades.symbols.InstanceLabel 150 3450 unnamed
hades.symbols.ClassLabel 150 450 unnamed
